Nombre_cliente;NIT;Nombre_Contacto;Apellido_Contacto;NumeroID_Contacto;email_contacto;email_cuenta;evento;estado
SASA;123;Juan Diego;Rojas Valencia;456123;juan.rojas@sasaconsultoria.com;sasa@sasaconsultoria.com;Campaña más;asistente 
SASADOS;777;Juan DOS;Rojas DOS;23333;juan.rojasDOS@sasaconsultoria.com;sasa@sasaconsultoria.com;Campaña más;asistente
SASATRES;9999;Juan TRES;Rojas TRES;233334;juan.rojasTRES@sasaconsultoria.com;sasa@sasaconsultoria.com;Campaña NUEVA;asistente